%YAML 1.1
%TAG !u! tag:unity3d.com,2011:
--- !u!1001 &100100000
Prefab:
  m_ObjectHideFlags: 1
  serializedVersion: 2
  m_Modification:
    m_TransformParent: {fileID: 0}
    m_Modifications: []
    m_RemovedComponents: []
  m_SourcePrefab: {fileID: 0}
  m_RootGameObject: {fileID: 1759845268869070}
  m_IsPrefabAsset: 1
--- !u!1 &1759845268869070
GameObject:
  m_ObjectHideFlags: 0
  m_CorrespondingSourceObject: {fileID: 0}
  m_PrefabInternal: {fileID: 100100000}
  serializedVersion: 6
  m_Component:
  - component: {fileID: 4738270031073738}
  - component: {fileID: 114543589781445804}
  m_Layer: 0
  m_Name: Catalogs
  m_TagString: Untagged
  m_Icon: {fileID: 0}
  m_NavMeshLayer: 0
  m_StaticEditorFlags: 0
  m_IsActive: 1
--- !u!4 &4738270031073738
Transform:
  m_ObjectHideFlags: 1
  m_CorrespondingSourceObject: {fileID: 0}
  m_PrefabInternal: {fileID: 100100000}
  m_GameObject: {fileID: 1759845268869070}
  m_LocalRotation: {x: 0, y: 0, z: 0, w: 1}
  m_LocalPosition: {x: 0, y: 0, z: 0}
  m_LocalScale: {x: 1, y: 1, z: 1}
  m_Children: []
  m_Father: {fileID: 0}
  m_RootOrder: 0
  m_LocalEulerAnglesHint: {x: 0, y: 0, z: 0}
--- !u!114 &114543589781445804
MonoBehaviour:
  m_ObjectHideFlags: 1
  m_CorrespondingSourceObject: {fileID: 0}
  m_PrefabInternal: {fileID: 100100000}
  m_GameObject: {fileID: 1759845268869070}
  m_Enabled: 1
  m_EditorHideFlags: 0
  m_Script: {fileID: 11500000, guid: d26516a7fe1fa66438b5d8dd8e110d1c, type: 3}
  m_Name: 
  m_EditorClassIdentifier: 
  m_kitchenItems:
  - {fileID: 114221322067040170, guid: 52e350e0fa21ca549904e423bf98616f, type: 2}
  - {fileID: 114221322067040170, guid: a8b7b3db4ee665e4fbe3389292434d10, type: 2}
  - {fileID: 114536509332589614, guid: 09293f0c0f21839488751cdc939d394a, type: 2}
  - {fileID: 114221322067040170, guid: 407cc772814ef684595a995e3134a885, type: 2}
  - {fileID: 114536509332589614, guid: 71457bd03ce3d6b44a1128c2707b3147, type: 2}
  - {fileID: 114536509332589614, guid: 1581222580ecf8e4781107ff7e65c363, type: 2}
  - {fileID: 114536509332589614, guid: 67f731b967d93f74785a77064aa44359, type: 2}
  - {fileID: 114221322067040170, guid: f35c89b9a4d07bc409b8b14be220ad1e, type: 2}
  m_bathroomItems:
  - {fileID: 114221322067040170, guid: c149f666a56dda440ad307a9e4638833, type: 2}
  - {fileID: 114221322067040170, guid: 675e74f53c191534eb2fbb6aac95fa9b, type: 2}
  - {fileID: 114221322067040170, guid: 69aa60e70b692874e880f09d1c194b60, type: 2}
  - {fileID: 114536509332589614, guid: 620b2f43b6db008469c5557afc1cf5aa, type: 2}
  - {fileID: 114221322067040170, guid: 4aaa912f9694ed14b81f185b0659aff9, type: 2}
  - {fileID: 114536509332589614, guid: 1df58e2599d5f1641a3ef64ec34415d2, type: 2}
  m_bedroomItems:
  - {fileID: 114221322067040170, guid: 3333c58539811e74bba86f0657221999, type: 2}
  - {fileID: 114221322067040170, guid: 253aeed18cd83694a8cad05883f46d03, type: 2}
  - {fileID: 114221322067040170, guid: 82a7b346238aa4946a0edb0090c82695, type: 2}
  - {fileID: 114536509332589614, guid: 64131163b47992348b85277b54f41d2f, type: 2}
  - {fileID: 114536509332589614, guid: 9e3892340274e3d4286161b24f04af72, type: 2}
  m_livingroomItems:
  - {fileID: 114221322067040170, guid: 7268658cc096ed440b6d4989653927ef, type: 2}
  - {fileID: 114221322067040170, guid: 91467e39b73efef4c9326d473ec5e959, type: 2}
  - {fileID: 114221322067040170, guid: f1f030575b02edd4f9acbebc20319f06, type: 2}
  - {fileID: 114221322067040170, guid: e3a17b968b8b6d146931d6e87c4176fe, type: 2}
  - {fileID: 114221322067040170, guid: 5c4b6be4daf8fd84283e8d5f1c2b820a, type: 2}
  m_badItems:
  - {fileID: 114536509332589614, guid: f0d579684b2f50c4db8210da1182233e, type: 2}
  - {fileID: 114536509332589614, guid: 5f4f3eef33483a34094ab38639340096, type: 2}
  - {fileID: 114221322067040170, guid: c532f645c3e1b204dab5955ea2df155d, type: 2}
  - {fileID: 114536509332589614, guid: 02dd5013761179f4f9f93aef362c3a16, type: 2}
  - {fileID: 114221322067040170, guid: aba61959d6ba9b6458e7267c55734d95, type: 2}
  - {fileID: 114221322067040170, guid: 30cc493c7a3b23048b324d671f3e11e4, type: 2}
  - {fileID: 114536509332589614, guid: e8314d9f875f22940afb7d54436dbbab, type: 2}
